<svg width="263" height="274" viewBox="0 0 263 274" fill="none" xmlns="http://www.w3.org/2000/svg">
<mask id="mask0" mask-type="alpha" maskUnits="userSpaceOnUse" x="6" y="6" width="251" height="268">
<g opacity="0.6">
<path d="M48.4634 133.787C57.736 121.572 70.4279 112.933 85.1635 108.814C110.026 101.859 131.059 87.6425 146.117 67.8063L162.414 46.3376C169.644 36.8133 183.276 34.9466 192.8 42.1766L208.864 54.3707C218.388 61.6007 220.255 75.2329 213.025 84.7571L196.728 106.226C181.832 125.849 173.653 150.585 173.689 175.881C173.713 191.458 168.673 206.227 159.11 218.588C147.958 233.012 131.798 242.348 113.607 244.89C95.4189 247.427 77.3138 242.869 62.6423 232.053C47.4998 220.902 37.675 204.49 34.9947 185.88C32.3097 167.265 37.0942 148.764 48.4634 133.787ZM87.567 117.423C74.728 121.014 63.6654 128.542 55.5817 139.19C45.6715 152.245 41.4977 168.376 43.8391 184.605C46.1757 200.83 54.7391 215.11 67.9463 224.859C94.2908 244.282 132.018 239.014 152.038 213.123C160.377 202.346 164.771 189.472 164.752 175.889C164.712 149.229 173.17 123.118 188.603 102.168L152.285 74.5985C136.113 95.3018 113.769 110.093 87.567 117.423ZM169.532 51.7412L168.678 52.8659L201.89 84.6448L204.076 81.7642L171.012 50.1268C170.484 50.6158 169.982 51.148 169.532 51.7412ZM163.239 60.0316L157.623 67.4298L193.997 95.0422L196.45 91.8105L163.239 60.0316ZM180.386 46.7256L208.362 73.4979C209.007 69.051 207.285 64.3925 203.46 61.489L187.397 49.2949C185.29 47.6954 182.845 46.8566 180.386 46.7256Z" fill="url(#paint0_linear)"/>
<path d="M61.2765 143.513C62.2888 142.18 63.3699 140.884 64.4864 139.659C66.0622 137.938 68.6659 137.73 70.4834 139.11C70.5926 139.193 70.6981 139.281 70.8048 139.376C72.6231 141.041 72.7508 143.868 71.0827 145.691C70.1473 146.717 69.2413 147.802 68.3948 148.917C53.4989 168.54 57.3443 196.622 76.967 211.518C78.9317 213.009 79.3157 215.814 77.8244 217.779C76.333 219.743 73.5281 220.127 71.5634 218.636C48.0162 200.761 43.4014 167.061 61.2765 143.513Z" fill="url(#paint1_linear)"/>
<path d="M75.8375 135.358C74.6202 133.207 75.3784 130.484 77.5292 129.266C81.2701 127.147 85.2943 125.482 89.492 124.307C90.892 123.911 92.3225 124.234 93.3997 125.052C94.1495 125.621 94.7239 126.431 95.0019 127.405C95.6637 129.785 94.2743 132.246 91.8991 132.912C88.3936 133.893 85.0419 135.284 81.9239 137.046C79.7768 138.258 77.05 137.505 75.8375 135.358Z" fill="url(#paint2_linear)"/>
<path d="M156.405 129.436C157.212 127.102 159.752 125.865 162.09 126.668C162.545 126.826 162.967 127.049 163.337 127.33C164.832 128.465 165.503 130.478 164.857 132.344C160.02 146.392 157.579 161.048 157.606 175.902C157.61 179.039 157.343 182.18 156.813 185.233C156.389 187.664 154.074 189.295 151.643 188.871C149.212 188.447 147.581 186.132 148.005 183.701C148.448 181.157 148.671 178.537 148.665 175.914C148.638 160.065 151.247 144.43 156.405 129.436Z" fill="url(#paint3_linear)"/>
<path d="M143.242 197.297C144.43 195.132 147.144 194.335 149.309 195.522C149.503 195.632 149.694 195.754 149.865 195.884C151.602 197.203 152.158 199.622 151.079 201.586C149.718 204.068 148.14 206.483 146.383 208.748C144.878 210.701 142.059 211.045 140.119 209.55C138.164 208.036 137.81 205.231 139.316 203.278C140.786 201.38 142.105 199.366 143.242 197.297Z" fill="url(#paint4_linear)"/>
</g>
</mask>
<g mask="url(#mask0)">
<rect opacity="0.7" x="-283" y="-224" width="1440" height="357" fill="url(#paint5_linear)"/>
</g>
<defs>
<linearGradient id="paint0_linear" x1="61.837" y1="231.451" x2="200.869" y2="48.3016" gradientUnits="userSpaceOnUse">
<stop stop-color="#1F1E6D"/>
<stop offset="0.6875" stop-color="#117097"/>
<stop offset="1" stop-color="#00D4CA"/>
</linearGradient>
<linearGradient id="paint1_linear" x1="51.9905" y1="203.778" x2="89.895" y2="153.846" gradientUnits="userSpaceOnUse">
<stop stop-color="#1F1E6D"/>
<stop offset="0.6875" stop-color="#117097"/>
<stop offset="1" stop-color="#00D4CA"/>
</linearGradient>
<linearGradient id="paint2_linear" x1="79.4078" y1="138.527" x2="91.0125" y2="123.24" gradientUnits="userSpaceOnUse">
<stop stop-color="#1F1E6D"/>
<stop offset="0.6875" stop-color="#117097"/>
<stop offset="1" stop-color="#00D4CA"/>
</linearGradient>
<linearGradient id="paint3_linear" x1="139.414" y1="180.214" x2="173.628" y2="135.143" gradientUnits="userSpaceOnUse">
<stop stop-color="#1F1E6D"/>
<stop offset="0.6875" stop-color="#117097"/>
<stop offset="1" stop-color="#00D4CA"/>
</linearGradient>
<linearGradient id="paint4_linear" x1="139.934" y1="209.41" x2="150.079" y2="196.047" gradientUnits="userSpaceOnUse">
<stop stop-color="#1F1E6D"/>
<stop offset="0.6875" stop-color="#117097"/>
<stop offset="1" stop-color="#00D4CA"/>
</linearGradient>
<linearGradient id="paint5_linear" x1="-283" y1="-45" x2="1157" y2="-45" gradientUnits="userSpaceOnUse">
<stop stop-color="#00D4CA"/>
<stop offset="1" stop-color="#2A3B87"/>
</linearGradient>
</defs>
</svg>
